{
    "channels": [
        {
            "name": "SR",
            "samples": [
                {
                    "data": [
                        3.8616042137145996
                    ],
                    "modifiers": [
                        {
                            "data": [
                                0.2801545585377428
                            ],
                            "name": "staterror_SR",
                            "type": "staterror"
                        },
                        {
                            "data": null,
                            "name": "mu_tty",
                            "type": "normfactor"
                        },
                        {
                            "data": {
                                "hi": 1.2,
                                "lo": 0.8
                            },
                            "name": "FlatSys",
                            "type": "normsys"
                        }
                    ],
                    "name": "tty"
                },
                {
                    "data": [
                        9.194883966458576
                    ],
                    "modifiers": [
                        {
                            "data": [
                                0.15131264301163475
                            ],
                            "name": "staterror_SR",
                            "type": "staterror"
                        },
                        {
                            "data": null,
                            "name": "mu_Wt",
                            "type": "normfactor"
                        },
                        {
                            "data": {
                                "hi": 1.2,
                                "lo": 0.8
                            },
                            "name": "FlatSys",
                            "type": "normsys"
                        }
                    ],
                    "name": "Wy"
                },
                {
                    "data": [
                        65.24989311397076
                    ],
                    "modifiers": [
                        {
                            "data": [
                                1.9343798337136249
                            ],
                            "name": "staterror_SR",
                            "type": "staterror"
                        },
                        {
                            "data": null,
                            "name": "mu_Signal",
                            "type": "normfactor"
                        },
                        {
                            "data": {
                                "hi": 1.2,
                                "lo": 0.8
                            },
                            "name": "FlatSys",
                            "type": "normsys"
                        }
                    ],
                    "name": "Signal"
                }
            ]
        },
        {
            "name": "CR-tty",
            "samples": [
                {
                    "data": [
                        73.69298605807126
                    ],
                    "modifiers": [
                        {
                            "data": [
                                1.2238248000396363
                            ],
                            "name": "staterror_CR-tty",
                            "type": "staterror"
                        },
                        {
                            "data": null,
                            "name": "mu_tty",
                            "type": "normfactor"
                        },
                        {
                            "data": {
                                "hi": 1.2,
                                "lo": 0.8
                            },
                            "name": "FlatSys",
                            "type": "normsys"
                        }
                    ],
                    "name": "tty"
                },
                {
                    "data": [
                        13.791450376949797
                    ],
                    "modifiers": [
                        {
                            "data": [
                                0.3009406513831525
                            ],
                            "name": "staterror_CR-tty",
                            "type": "staterror"
                        },
                        {
                            "data": null,
                            "name": "mu_Wt",
                            "type": "normfactor"
                        },
                        {
                            "data": {
                                "hi": 1.2,
                                "lo": 0.8
                            },
                            "name": "FlatSys",
                            "type": "normsys"
                        }
                    ],
                    "name": "Wy"
                },
                {
                    "data": [
                        45.81463299319148
                    ],
                    "modifiers": [
                        {
                            "data": [
                                1.606575027992459
                            ],
                            "name": "staterror_CR-tty",
                            "type": "staterror"
                        },
                        {
                            "data": null,
                            "name": "mu_Signal",
                            "type": "normfactor"
                        },
                        {
                            "data": {
                                "hi": 1.2,
                                "lo": 0.8
                            },
                            "name": "FlatSys",
                            "type": "normsys"
                        }
                    ],
                    "name": "Signal"
                }
            ]
        },
        {
            "name": "CR-Wy",
            "samples": [
                {
                    "data": [
                        9.388351699337363
                    ],
                    "modifiers": [
                        {
                            "data": [
                                0.43679311202686527
                            ],
                            "name": "staterror_CR-Wy",
                            "type": "staterror"
                        },
                        {
                            "data": null,
                            "name": "mu_tty",
                            "type": "normfactor"
                        },
                        {
                            "data": {
                                "hi": 1.2,
                                "lo": 0.8
                            },
                            "name": "FlatSys",
                            "type": "normsys"
                        }
                    ],
                    "name": "tty"
                },
                {
                    "data": [
                        232.6983673658665
                    ],
                    "modifiers": [
                        {
                            "data": [
                                1.3411080890967224
                            ],
                            "name": "staterror_CR-Wy",
                            "type": "staterror"
                        },
                        {
                            "data": null,
                            "name": "mu_Wt",
                            "type": "normfactor"
                        },
                        {
                            "data": {
                                "hi": 1.2,
                                "lo": 0.8
                            },
                            "name": "FlatSys",
                            "type": "normsys"
                        }
                    ],
                    "name": "Wy"
                },
                {
                    "data": [
                        16.270146265625954
                    ],
                    "modifiers": [
                        {
                            "data": [
                                0.9595436678483765
                            ],
                            "name": "staterror_CR-Wy",
                            "type": "staterror"
                        },
                        {
                            "data": null,
                            "name": "mu_Signal",
                            "type": "normfactor"
                        },
                        {
                            "data": {
                                "hi": 1.2,
                                "lo": 0.8
                            },
                            "name": "FlatSys",
                            "type": "normsys"
                        }
                    ],
                    "name": "Signal"
                }
            ]
        }
    ],
    "measurements": [
        {
            "config": {
                "parameters": [
                    {
                        "bounds": [
                            [
                                0,
                                10
                            ]
                        ],
                        "inits": [
                            1
                        ],
                        "name": "mu_Signal"
                    },
                    {
                        "bounds": [
                            [
                                0,
                                10
                            ]
                        ],
                        "inits": [
                            1
                        ],
                        "name": "mu_tty"
                    },
                    {
                        "bounds": [
                            [
                                0,
                                10
                            ]
                        ],
                        "inits": [
                            1
                        ],
                        "name": "mu_Wt"
                    }
                ],
                "poi": "mu_Signal"
            },
            "name": "AnalysisChallenge"
        }
    ],
    "observations": [
        {
            "data": [
                15.0
            ],
            "name": "SR"
        },
        {
            "data": [
                74.0
            ],
            "name": "CR-tty"
        },
        {
            "data": [
                167.0
            ],
            "name": "CR-Wy"
        }
    ],
    "version": "1.0.0"
}